-------------------------------------------------------------------------------
Test set: com.rezgateway.automation.builder.request.ModificationRequestBuilderTest
-------------------------------------------------------------------------------
Tests run: 1, Failures: 0, Errors: 0, Skipped: 0, Time elapsed: 0.001 sec
